<?xml version="1.0" encoding="iso-8859-1"?>
<!-- Uploaded to: SVG Repo, www.svgrepo.com, Generator: SVG Repo Mixer Tools -->
<!DOCTYPE svg PUBLIC "-//W3C//DTD SVG 1.1//EN" "http://www.w3.org/Graphics/SVG/1.1/DTD/svg11.dtd">
<svg fill="#000000" height="30px" width="30px" version="1.1" id="Capa_1" xmlns="http://www.w3.org/2000/svg" xmlns:xlink="http://www.w3.org/1999/xlink" 
	 viewBox="0 0 494.741 494.741" xml:space="preserve">
<g id="XMLID_152_">
	<path id="XMLID_159_" d="M432.049,195.912l-26.982-66.644c-1.281-3.15-3.223-6.088-5.461-8.842l2.32-19.76
		c0.247-2.146-0.856-4.228-2.779-5.214c-1.926-0.995-4.263-0.684-5.858,0.765l-13.407,12.174
		c-12.439-2.591-25.829,1.604-34.301,12.198c-1.955,2.46-3.355,5.142-4.54,7.905c5.511,5.182,9.409,12.116,10.413,20.202
		c2.271,18.476-10.875,35.279-29.333,37.55l-8.817,1.087l-14.297,31.183c4.342,9.532,4.871,20.72,0.346,30.986l-30.779,69.761
		h24.791l53.152,86.18c3.539,5.741,10.564,8.744,17.424,6.894c8.342-2.264,13.275-10.867,11.006-19.215l-30.4-112.208l39.104-85.306
		l23.559,18.827c4.375,3.48,10.464,4.583,16.008,2.337C431.424,213.448,435.371,204.112,432.049,195.912z"/>
	<path id="XMLID_158_" d="M195.513,319.263c-2.387-8.249-2.158-17.299,1.576-25.771l18.738-42.461
		c-5.986-3.207-23.688-12.594-29.529-16h-36.391c-6.037,0-11.744,1.316-16.928,3.605c-4.194-19.34-15.529-50.219-45.998-61.348
		c0,0-33,22.645-23.871,58.442c0,0,35.733,5.964,52.775,16.763c-5.032,6.943-8.093,15.416-8.093,24.652
		c0,1.202,0.247,2.329,0.347,3.505l-30.468,112.47c-1.761,6.522,0.839,13.704,6.892,17.422c7.355,4.539,16.994,2.262,21.537-5.101
		l53.151-86.18H195.513z"/>
	<path id="XMLID_157_" d="M267.271,329.792h-4.426c-10.346,15.308-29.43,21.147-46.374,13.679
		c-6.845-3.027-12.29-7.873-16.157-13.679h-16.58c-9.313,0-16.847,7.542-16.847,16.845c0,9.303,7.534,16.847,16.847,16.847h83.537
		c9.313,0,16.846-7.544,16.846-16.847C284.117,337.334,276.584,329.792,267.271,329.792z"/>
	<path id="XMLID_156_" d="M267.271,371.907h-83.537c-9.313,0-16.847,7.544-16.847,16.847c0,9.302,7.534,16.845,16.847,16.845h83.537
		c9.313,0,16.846-7.543,16.846-16.845C284.117,379.451,276.584,371.907,267.271,371.907z"/>
	<path id="XMLID_155_" d="M304.386,459.057c-5.988-8.852-15.975-14.156-26.652-14.156h-1.695c4.756-2.978,8.078-8.012,8.078-14.033
		c0-9.302-7.533-16.846-16.846-16.846h-83.537c-9.313,0-16.847,7.544-16.847,16.846c0,6.022,3.322,11.055,8.077,14.033h-1.71
		c-10.677,0-20.663,5.305-26.651,14.156l-12.059,17.85c-2.369,3.504-2.616,8.029-0.626,11.762c1.975,3.734,5.858,6.072,10.101,6.072
		h162.949c4.229,0,8.127-2.338,10.102-6.072c1.992-3.732,1.742-8.258-0.625-11.762L304.386,459.057z"/>
	<path id="XMLID_154_" d="M282.16,78.277c21.52-2.647,36.852-22.25,34.203-43.784c-2.648-21.534-22.276-36.843-43.795-34.195
		c-21.516,2.641-36.832,22.25-34.184,43.786C241.031,65.618,260.642,80.925,282.16,78.277z"/>
	<path id="XMLID_153_" d="M193.686,224.84l38.413,20.581l-23.443,53.169c-5.643,12.77,0.148,27.689,12.916,33.323
		c12.864,5.668,27.734-0.265,33.313-12.923l32.902-74.59c5.328-12.082,0.461-26.239-11.188-32.474l-33.394-17.892
		c4.227-15.473,2.895-10.602,6.07-22.168c3.949,5.149,9.953,8.316,16.467,8.316c2.088,0,52.743-6.326,54.814-6.581
		c11.484-1.406,19.66-11.86,18.244-23.352c-1.412-11.499-12.105-19.708-23.342-18.235l-38.299,4.705l-12.258-21.891l0.543-1.972
		c4.59-16.741-5.248-34.031-21.994-38.62c-16.715-4.582-34.037,5.265-38.611,22.003c-9,32.862-18.279,66.677-25.434,92.793
		C175.377,203.701,183.106,219.2,193.686,224.84z"/>
</g>
</svg>